Chapter 26: Iteration
…
files[[1]] # access one of the data files

# A tibble: 142 × 5
   country     continent lifeExp      pop gdpPercap
   <chr>       <chr>       <dbl>    <dbl>     <dbl>
 1 Afghanistan Asia         28.8  8425333      779.
 2 Albania     Europe       55.2  1282697     1601.
 3 Algeria     Africa       43.1  9279525     2449.
 4 Angola      Africa       30.0  4232095     3521.
 5 Argentina   Americas     62.5 17876956     5911.
 6 Australia   Oceania      69.1  8691212    10040.
 7 Austria     Europe       66.8  6927772     6137.
 8 Bahrain     Asia         50.9   120447     9867.
 9 Bangladesh  Asia         37.5 46886859      684.
10 Belgium     Europe       68    8730405     8343.
# ℹ 132 more rows

# View(files) #uncomment to explore the files list in View

What binds us is list_rbind()

Combine the list of tibbles into one large dataset with the purrr package function list_rbind().

onebigfile <- list_rbind(files)
onebigfile

# A tibble: 1,704 × 5
   country     continent lifeExp      pop gdpPercap
   <chr>       <chr>       <dbl>    <dbl>     <dbl>
 1 Afghanistan Asia         28.8  8425333      779.
 2 Albania     Europe       55.2  1282697     1601.
 3 Algeria     Africa       43.1  9279525     2449.
 4 Angola      Africa       30.0  4232095     3521.
 5 Argentina   Americas     62.5 17876956     5911.
 6 Australia   Oceania      69.1  8691212    10040.
 7 Austria     Europe       66.8  6927772     6137.
 8 Bahrain     Asia         50.9   120447     9867.
 9 Bangladesh  Asia         37.5 46886859      684.
10 Belgium     Europe       68    8730405     8343.
# ℹ 1,694 more rows
…
